# MTL written from C:\Users\maxbo\Documents\Unity Projects\slimegame\SlimeGame\Assets\graphics\Meshes\Environment\Source\WallPiece.OBJ
newmtl Default
Kd 0.48 0.48 0.48
Ns 256
d 1
illum 2
Ka 0 0 0
Ks 0.04 0.04 0.04
